<?xml version="1.0" encoding="UTF-8"?>
<session version="1.0">
<refactoring comment="Delete resource &apos;cseFileSearch/fileconnector-connector-2.0.18.zip&apos;" deleteContents="false" description="Delete resource &apos;cseFileSearch/fileconnector-connector-2.0.18.zip&apos;" element1="/cseFileSearch/fileconnector-connector-2.0.18.zip" flags="7" id="org.eclipse.ltk.core.refactoring.delete.resources" resources="1" stamp="1572416514590"/>
</session>